<?xml version="1.0" encoding="UTF-8"?>
<svg width="8px" height="6px" viewBox="0 0 8 6" version="1.1" xmlns="http://www.w3.org/2000/svg" xmlns:xlink="http://www.w3.org/1999/xlink">
    <!-- Generator: sketchtool 63.1 (101010) - https://sketch.com -->
    <title>C83D1C8E-43B9-4EB3-91C5-4DB321158158</title>
    <desc>Created with sketchtool.</desc>
    <g id="Page-1" stroke="none" stroke-width="1" fill="none" fill-rule="evenodd">
        <g id="HOME_slideAds" transform="translate(-347.000000, -32.000000)" fill="#00BCBD">
            <g id="HEADER">
                <g id="MENUS" transform="translate(286.000000, 26.000000)">
                    <g id="IMAGES">
                        <g id="expand-more" transform="translate(61.000000, 6.000000)">
                            <polygon id="Shape" points="7.06666667 0.733333333 4 3.8 0.933333333 0.733333333 0 1.66666667 4 5.66666667 8 1.66666667"></polygon>
                        </g>
                    </g>
                </g>
            </g>
        </g>
    </g>
</svg>